{
  "name": "Mage",
  "type": "equippableItem",
  "img": "icons/svg/item-bag.svg",
  "system": {
    "hidden": [],
    "header": {
      "contents": [
        {
          "key": "edit",
          "cssClass": "",
          "role": "0",
          "permission": "0",
          "tooltip": "",
          "visibilityFormula": "",
          "label": "",
          "defaultValue": null,
          "size": "full-size",
          "type": "checkbox",
          "defaultChecked": false
        }
      ],
      "key": "custom_header",
      "cssClass": null,
      "role": 0,
      "permission": 0,
      "tooltip": null,
      "visibilityFormula": null,
      "flow": null,
      "align": null,
      "type": "panel"
    },
    "body": {
      "contents": [
        {
          "key": "",
          "cssClass": "",
          "role": 0,
          "permission": 0,
          "tooltip": null,
          "visibilityFormula": null,
          "contents": [
            {
              "key": "",
              "cssClass": "",
              "role": "0",
              "permission": "0",
              "tooltip": "",
              "visibilityFormula": "",
              "label": null,
              "defaultValue": null,
              "size": "full-size",
              "icon": "",
              "value": "Class",
              "prefix": "",
              "suffix": "",
              "rollMessage": "",
              "altRollMessage": "",
              "style": "title",
              "type": "label"
            },
            {
              "key": "",
              "cssClass": "",
              "role": 0,
              "permission": 0,
              "tooltip": null,
              "visibilityFormula": null,
              "contents": [
                [
                  {
                    "key": "",
                    "cssClass": "",
                    "role": 0,
                    "permission": 0,
                    "tooltip": null,
                    "visibilityFormula": null,
                    "label": null,
                    "defaultValue": null,
                    "size": "full-size",
                    "icon": "",
                    "value": "Level",
                    "prefix": "",
                    "suffix": "",
                    "rollMessage": "",
                    "altRollMessage": "",
                    "style": "bold",
                    "type": "label"
                  },
                  {
                    "key": "",
                    "cssClass": "",
                    "role": 0,
                    "permission": 0,
                    "tooltip": null,
                    "visibilityFormula": null,
                    "label": null,
                    "defaultValue": null,
                    "size": "full-size",
                    "icon": "",
                    "value": "Costs",
                    "prefix": "",
                    "suffix": "",
                    "rollMessage": "",
                    "altRollMessage": "",
                    "style": "bold",
                    "type": "label"
                  }
                ],
                [
                  {
                    "key": "Level",
                    "cssClass": "",
                    "role": 0,
                    "permission": 0,
                    "tooltip": null,
                    "visibilityFormula": null,
                    "label": "",
                    "defaultValue": "0",
                    "size": "full-size",
                    "allowDecimal": false,
                    "minVal": "0",
                    "maxVal": "15",
                    "allowRelative": false,
                    "showControls": true,
                    "controlsStyle": "hover",
                    "type": "numberField"
                  },
                  {
                    "key": "Costs",
                    "cssClass": "",
                    "role": 0,
                    "permission": 0,
                    "tooltip": null,
                    "visibilityFormula": null,
                    "label": null,
                    "defaultValue": null,
                    "size": "full-size",
                    "icon": "",
                    "value": "${Level * 14}$",
                    "prefix": "",
                    "suffix": "",
                    "rollMessage": "",
                    "altRollMessage": "",
                    "style": "label",
                    "type": "label"
                  }
                ]
              ],
              "cols": "2",
              "rows": "2",
              "layout": "cc",
              "type": "table"
            },
            {
              "key": "",
              "cssClass": "",
              "role": 0,
              "permission": 0,
              "tooltip": null,
              "visibilityFormula": null,
              "label": null,
              "defaultValue": null,
              "size": "full-size",
              "icon": "",
              "value": "Level Description",
              "prefix": "",
              "suffix": "",
              "rollMessage": "",
              "altRollMessage": "",
              "style": "title",
              "type": "label"
            },
            {
              "key": "",
              "cssClass": "",
              "role": "0",
              "permission": "0",
              "tooltip": "",
              "visibilityFormula": "",
              "contents": [
                [
                  {
                    "key": "",
                    "cssClass": "",
                    "role": 0,
                    "permission": 0,
                    "tooltip": null,
                    "visibilityFormula": null,
                    "label": null,
                    "defaultValue": null,
                    "size": "full-size",
                    "icon": "",
                    "value": "Level 1",
                    "prefix": "",
                    "suffix": "",
                    "rollMessage": "",
                    "altRollMessage": "",
                    "style": "bold",
                    "type": "label"
                  },
                  {
                    "key": "",
                    "cssClass": "",
                    "role": "0",
                    "permission": "0",
                    "tooltip": "",
                    "visibilityFormula": "",
                    "contents": [
                      {
                        "key": "Table_1",
                        "cssClass": "",
                        "role": "0",
                        "permission": "0",
                        "tooltip": "",
                        "visibilityFormula": "edit",
                        "rowLayout": [
                          {
                            "key": "Selection",
                            "cssClass": "",
                            "role": "0",
                            "permission": "0",
                            "tooltip": "",
                            "visibilityFormula": "",
                            "label": "",
                            "defaultValue": "",
                            "size": "full-size",
                            "charList": "",
                            "maxLength": "",
                            "type": "textField",
                            "align": "center",
                            "colName": ""
                          }
                        ],
                        "head": true,
                        "deleteWarning": true,
                        "predefinedLines": [],
                        "type": "dynamicTable"
                      },
                      {
                        "key": "Selection_1",
                        "cssClass": "",
                        "role": "0",
                        "permission": "0",
                        "tooltip": "",
                        "visibilityFormula": "not(edit)",
                        "label": "",
                        "defaultValue": "",
                        "size": "full-size",
                        "options": [],
                        "tableKey": "Table_1",
                        "tableKeyColumn": "Selection",
                        "tableLabelColumn": "",
                        "type": "select"
                      }
                    ],
                    "flow": "vertical",
                    "align": "center",
                    "type": "panel"
                  },
                  {
                    "key": "Level_1",
                    "cssClass": "",
                    "role": 0,
                    "permission": 0,
                    "tooltip": null,
                    "visibilityFormula": null,
                    "label": "",
                    "defaultValue": "",
                    "size": null,
                    "style": "dialog",
                    "type": "textArea"
                  }
                ],
                [
                  {
                    "key": "",
                    "cssClass": "",
                    "role": 0,
                    "permission": 0,
                    "tooltip": null,
                    "visibilityFormula": null,
                    "label": null,
                    "defaultValue": null,
                    "size": "full-size",
                    "icon": "",
                    "value": "Level 2",
                    "prefix": "",
                    "suffix": "",
                    "rollMessage": "",
                    "altRollMessage": "",
                    "style": "bold",
                    "type": "label"
                  },
                  {
                    "key": "",
                    "cssClass": "",
                    "role": "0",
                    "permission": "0",
                    "tooltip": "",
                    "visibilityFormula": "",
                    "contents": [
                      {
                        "key": "Table_2",
                        "cssClass": "",
                        "role": "0",
                        "permission": "0",
                        "tooltip": "",
                        "visibilityFormula": "edit",
                        "rowLayout": [
                          {
                            "key": "Selection",
                            "cssClass": "",
                            "role": "0",
                            "permission": "0",
                            "tooltip": "",
                            "visibilityFormula": "",
                            "label": "",
                            "defaultValue": "",
                            "size": "full-size",
                            "charList": "",
                            "maxLength": "",
                            "type": "textField",
                            "align": "center",
                            "colName": ""
                          }
                        ],
                        "head": true,
                        "deleteWarning": true,
                        "predefinedLines": [],
                        "type": "dynamicTable"
                      },
                      {
                        "key": "Selection_2",
                        "cssClass": "",
                        "role": "0",
                        "permission": "0",
                        "tooltip": "",
                        "visibilityFormula": "not(edit)",
                        "label": "",
                        "defaultValue": "",
                        "size": "full-size",
                        "options": [],
                        "tableKey": "Table_2",
                        "tableKeyColumn": "Selection",
                        "tableLabelColumn": "",
                        "type": "select"
                      }
                    ],
                    "flow": "vertical",
                    "align": "center",
                    "type": "panel"
                  },
                  {
                    "key": "Level_2",
                    "cssClass": "",
                    "role": 0,
                    "permission": 0,
                    "tooltip": null,
                    "visibilityFormula": null,
                    "label": "",
                    "defaultValue": "",
                    "size": null,
                    "style": "dialog",
                    "type": "textArea"
                  }
                ],
                [
                  {
                    "key": "",
                    "cssClass": "",
                    "role": 0,
                    "permission": 0,
                    "tooltip": null,
                    "visibilityFormula": null,
                    "label": null,
                    "defaultValue": null,
                    "size": "full-size",
                    "icon": "",
                    "value": "Level 3",
                    "prefix": "",
                    "suffix": "",
                    "rollMessage": "",
                    "altRollMessage": "",
                    "style": "bold",
                    "type": "label"
                  },
                  {
                    "key": "",
                    "cssClass": "",
                    "role": "0",
                    "permission": "0",
                    "tooltip": "",
                    "visibilityFormula": "",
                    "contents": [
                      {
                        "key": "Table_3",
                        "cssClass": "",
                        "role": "0",
                        "permission": "0",
                        "tooltip": "",
                        "visibilityFormula": "edit",
                        "rowLayout": [
                          {
                            "key": "Selection",
                            "cssClass": "",
                            "role": "0",
                            "permission": "0",
                            "tooltip": "",
                            "visibilityFormula": "",
                            "label": "",
                            "defaultValue": "",
                            "size": "full-size",
                            "charList": "",
                            "maxLength": "",
                            "type": "textField",
                            "align": "center",
                            "colName": ""
                          }
                        ],
                        "head": true,
                        "deleteWarning": true,
                        "predefinedLines": [],
                        "type": "dynamicTable"
                      },
                      {
                        "key": "Selection_3",
                        "cssClass": "",
                        "role": "0",
                        "permission": "0",
                        "tooltip": "",
                        "visibilityFormula": "not(edit)",
                        "label": "",
                        "defaultValue": "",
                        "size": "full-size",
                        "options": [],
                        "tableKey": "Table_3",
                        "tableKeyColumn": "Selection",
                        "tableLabelColumn": "",
                        "type": "select"
                      }
                    ],
                    "flow": "vertical",
                    "align": "center",
                    "type": "panel"
                  },
                  {
                    "key": "Level_3",
                    "cssClass": "",
                    "role": 0,
                    "permission": 0,
                    "tooltip": null,
                    "visibilityFormula": null,
                    "label": "",
                    "defaultValue": "",
                    "size": null,
                    "style": "dialog",
                    "type": "textArea"
                  }
                ],
                [
                  {
                    "key": "",
                    "cssClass": "",
                    "role": 0,
                    "permission": 0,
                    "tooltip": null,
                    "visibilityFormula": null,
                    "label": null,
                    "defaultValue": null,
                    "size": "full-size",
                    "icon": "",
                    "value": "Level 4",
                    "prefix": "",
                    "suffix": "",
                    "rollMessage": "",
                    "altRollMessage": "",
                    "style": "bold",
                    "type": "label"
                  },
                  {
                    "key": "",
                    "cssClass": "",
                    "role": "0",
                    "permission": "0",
                    "tooltip": "",
                    "visibilityFormula": "",
                    "contents": [
                      {
                        "key": "Table_4",
                        "cssClass": "",
                        "role": "0",
                        "permission": "0",
                        "tooltip": "",
                        "visibilityFormula": "edit",
                        "rowLayout": [
                          {
                            "key": "Selection",
                            "cssClass": "",
                            "role": "0",
                            "permission": "0",
                            "tooltip": "",
                            "visibilityFormula": "",
                            "label": "",
                            "defaultValue": "",
                            "size": "full-size",
                            "charList": "",
                            "maxLength": "",
                            "type": "textField",
                            "align": "center",
                            "colName": ""
                          }
                        ],
                        "head": true,
                        "deleteWarning": true,
                        "predefinedLines": [],
                        "type": "dynamicTable"
                      },
                      {
                        "key": "Selection_4",
                        "cssClass": "",
                        "role": "0",
                        "permission": "0",
                        "tooltip": "",
                        "visibilityFormula": "not(edit)",
                        "label": "",
                        "defaultValue": "",
                        "size": "full-size",
                        "options": [],
                        "tableKey": "Table_4",
                        "tableKeyColumn": "Selection",
                        "tableLabelColumn": "",
                        "type": "select"
                      }
                    ],
                    "flow": "vertical",
                    "align": "center",
                    "type": "panel"
                  },
                  {
                    "key": "Level_4",
                    "cssClass": "",
                    "role": 0,
                    "permission": 0,
                    "tooltip": null,
                    "visibilityFormula": null,
                    "label": "",
                    "defaultValue": "",
                    "size": null,
                    "style": "dialog",
                    "type": "textArea"
                  }
                ],
                [
                  {
                    "key": "",
                    "cssClass": "",
                    "role": 0,
                    "permission": 0,
                    "tooltip": null,
                    "visibilityFormula": null,
                    "label": null,
                    "defaultValue": null,
                    "size": "full-size",
                    "icon": "",
                    "value": "Level 5",
                    "prefix": "",
                    "suffix": "",
                    "rollMessage": "",
                    "altRollMessage": "",
                    "style": "bold",
                    "type": "label"
                  },
                  {
                    "key": "",
                    "cssClass": "",
                    "role": "0",
                    "permission": "0",
                    "tooltip": "",
                    "visibilityFormula": "",
                    "contents": [
                      {
                        "key": "Table_5",
                        "cssClass": "",
                        "role": "0",
                        "permission": "0",
                        "tooltip": "",
                        "visibilityFormula": "edit",
                        "rowLayout": [
                          {
                            "key": "Selection",
                            "cssClass": "",
                            "role": "0",
                            "permission": "0",
                            "tooltip": "",
                            "visibilityFormula": "",
                            "label": "",
                            "defaultValue": "",
                            "size": "full-size",
                            "charList": "",
                            "maxLength": "",
                            "type": "textField",
                            "align": "center",
                            "colName": ""
                          }
                        ],
                        "head": true,
                        "deleteWarning": true,
                        "predefinedLines": [],
                        "type": "dynamicTable"
                      },
                      {
                        "key": "Selection_5",
                        "cssClass": "",
                        "role": "0",
                        "permission": "0",
                        "tooltip": "",
                        "visibilityFormula": "not(edit)",
                        "label": "",
                        "defaultValue": "",
                        "size": "full-size",
                        "options": [],
                        "tableKey": "Table_5",
                        "tableKeyColumn": "Selection",
                        "tableLabelColumn": "",
                        "type": "select"
                      }
                    ],
                    "flow": "vertical",
                    "align": "center",
                    "type": "panel"
                  },
                  {
                    "key": "Level_5",
                    "cssClass": "",
                    "role": 0,
                    "permission": 0,
                    "tooltip": null,
                    "visibilityFormula": null,
                    "label": "",
                    "defaultValue": "",
                    "size": null,
                    "style": "dialog",
                    "type": "textArea"
                  }
                ],
                [
                  {
                    "key": "",
                    "cssClass": "",
                    "role": 0,
                    "permission": 0,
                    "tooltip": null,
                    "visibilityFormula": null,
                    "label": null,
                    "defaultValue": null,
                    "size": "full-size",
                    "icon": "",
                    "value": "Level 6",
                    "prefix": "",
                    "suffix": "",
                    "rollMessage": "",
                    "altRollMessage": "",
                    "style": "bold",
                    "type": "label"
                  },
                  {
                    "key": "",
                    "cssClass": "",
                    "role": "0",
                    "permission": "0",
                    "tooltip": "",
                    "visibilityFormula": "",
                    "contents": [
                      {
                        "key": "Table_6",
                        "cssClass": "",
                        "role": "0",
                        "permission": "0",
                        "tooltip": "",
                        "visibilityFormula": "edit",
                        "rowLayout": [
                          {
                            "key": "Selection",
                            "cssClass": "",
                            "role": "0",
                            "permission": "0",
                            "tooltip": "",
                            "visibilityFormula": "",
                            "label": "",
                            "defaultValue": "",
                            "size": "full-size",
                            "charList": "",
                            "maxLength": "",
                            "type": "textField",
                            "align": "center",
                            "colName": ""
                          }
                        ],
                        "head": true,
                        "deleteWarning": true,
                        "predefinedLines": [],
                        "type": "dynamicTable"
                      },
                      {
                        "key": "Selection_6",
                        "cssClass": "",
                        "role": "0",
                        "permission": "0",
                        "tooltip": "",
                        "visibilityFormula": "not(edit)",
                        "label": "",
                        "defaultValue": "",
                        "size": "full-size",
                        "options": [],
                        "tableKey": "Table_6",
                        "tableKeyColumn": "Selection",
                        "tableLabelColumn": "",
                        "type": "select"
                      }
                    ],
                    "flow": "vertical",
                    "align": "center",
                    "type": "panel"
                  },
                  {
                    "key": "Level_6",
                    "cssClass": "",
                    "role": "0",
                    "permission": "0",
                    "tooltip": "",
                    "visibilityFormula": "",
                    "label": "",
                    "defaultValue": "",
                    "size": null,
                    "style": "dialog",
                    "type": "textArea"
                  }
                ],
                [
                  {
                    "key": "",
                    "cssClass": "",
                    "role": 0,
                    "permission": 0,
                    "tooltip": null,
                    "visibilityFormula": null,
                    "label": null,
                    "defaultValue": null,
                    "size": "full-size",
                    "icon": "",
                    "value": "Level 7",
                    "prefix": "",
                    "suffix": "",
                    "rollMessage": "",
                    "altRollMessage": "",
                    "style": "bold",
                    "type": "label"
                  },
                  {
                    "key": "",
                    "cssClass": "",
                    "role": "0",
                    "permission": "0",
                    "tooltip": "",
                    "visibilityFormula": "",
                    "contents": [
                      {
                        "key": "Table_7",
                        "cssClass": "",
                        "role": "0",
                        "permission": "0",
                        "tooltip": "",
                        "visibilityFormula": "edit",
                        "rowLayout": [
                          {
                            "key": "Selection",
                            "cssClass": "",
                            "role": "0",
                            "permission": "0",
                            "tooltip": "",
                            "visibilityFormula": "",
                            "label": "",
                            "defaultValue": "",
                            "size": "full-size",
                            "charList": "",
                            "maxLength": "",
                            "type": "textField",
                            "align": "center",
                            "colName": ""
                          }
                        ],
                        "head": true,
                        "deleteWarning": true,
                        "predefinedLines": [],
                        "type": "dynamicTable"
                      },
                      {
                        "key": "Selection_7",
                        "cssClass": "",
                        "role": "0",
                        "permission": "0",
                        "tooltip": "",
                        "visibilityFormula": "not(edit)",
                        "label": "",
                        "defaultValue": "",
                        "size": "full-size",
                        "options": [],
                        "tableKey": "Table_7",
                        "tableKeyColumn": "Selection",
                        "tableLabelColumn": "",
                        "type": "select"
                      }
                    ],
                    "flow": "vertical",
                    "align": "center",
                    "type": "panel"
                  },
                  {
                    "key": "Level_7",
                    "cssClass": "",
                    "role": 0,
                    "permission": 0,
                    "tooltip": null,
                    "visibilityFormula": null,
                    "label": "",
                    "defaultValue": "",
                    "size": null,
                    "style": "dialog",
                    "type": "textArea"
                  }
                ],
                [
                  {
                    "key": "",
                    "cssClass": "",
                    "role": 0,
                    "permission": 0,
                    "tooltip": null,
                    "visibilityFormula": null,
                    "label": null,
                    "defaultValue": null,
                    "size": "full-size",
                    "icon": "",
                    "value": "Level 8",
                    "prefix": "",
                    "suffix": "",
                    "rollMessage": "",
                    "altRollMessage": "",
                    "style": "bold",
                    "type": "label"
                  },
                  {
                    "key": "",
                    "cssClass": "",
                    "role": "0",
                    "permission": "0",
                    "tooltip": "",
                    "visibilityFormula": "",
                    "contents": [
                      {
                        "key": "Table_8",
                        "cssClass": "",
                        "role": "0",
                        "permission": "0",
                        "tooltip": "",
                        "visibilityFormula": "edit",
                        "rowLayout": [
                          {
                            "key": "Selection",
                            "cssClass": "",
                            "role": "0",
                            "permission": "0",
                            "tooltip": "",
                            "visibilityFormula": "",
                            "label": "",
                            "defaultValue": "",
                            "size": "full-size",
                            "charList": "",
                            "maxLength": "",
                            "type": "textField",
                            "align": "center",
                            "colName": ""
                          }
                        ],
                        "head": true,
                        "deleteWarning": true,
                        "predefinedLines": [],
                        "type": "dynamicTable"
                      },
                      {
                        "key": "Selection_8",
                        "cssClass": "",
                        "role": "0",
                        "permission": "0",
                        "tooltip": "",
                        "visibilityFormula": "not(edit)",
                        "label": "",
                        "defaultValue": "",
                        "size": "full-size",
                        "options": [],
                        "tableKey": "Table_8",
                        "tableKeyColumn": "Selection",
                        "tableLabelColumn": "",
                        "type": "select"
                      }
                    ],
                    "flow": "vertical",
                    "align": "center",
                    "type": "panel"
                  },
                  {
                    "key": "Level_8",
                    "cssClass": "",
                    "role": 0,
                    "permission": 0,
                    "tooltip": null,
                    "visibilityFormula": null,
                    "label": "",
                    "defaultValue": "",
                    "size": null,
                    "style": "dialog",
                    "type": "textArea"
                  }
                ],
                [
                  {
                    "key": "",
                    "cssClass": "",
                    "role": 0,
                    "permission": 0,
                    "tooltip": null,
                    "visibilityFormula": null,
                    "label": null,
                    "defaultValue": null,
                    "size": "full-size",
                    "icon": "",
                    "value": "Level 9",
                    "prefix": "",
                    "suffix": "",
                    "rollMessage": "",
                    "altRollMessage": "",
                    "style": "bold",
                    "type": "label"
                  },
                  {
                    "key": "",
                    "cssClass": "",
                    "role": "0",
                    "permission": "0",
                    "tooltip": "",
                    "visibilityFormula": "",
                    "contents": [
                      {
                        "key": "Table_9",
                        "cssClass": "",
                        "role": "0",
                        "permission": "0",
                        "tooltip": "",
                        "visibilityFormula": "edit",
                        "rowLayout": [
                          {
                            "key": "Selection",
                            "cssClass": "",
                            "role": "0",
                            "permission": "0",
                            "tooltip": "",
                            "visibilityFormula": "",
                            "label": "",
                            "defaultValue": "",
                            "size": "full-size",
                            "charList": "",
                            "maxLength": "",
                            "type": "textField",
                            "align": "center",
                            "colName": ""
                          }
                        ],
                        "head": true,
                        "deleteWarning": true,
                        "predefinedLines": [],
                        "type": "dynamicTable"
                      },
                      {
                        "key": "Selection_9",
                        "cssClass": "",
                        "role": "0",
                        "permission": "0",
                        "tooltip": "",
                        "visibilityFormula": "not(edit)",
                        "label": "",
                        "defaultValue": "",
                        "size": "full-size",
                        "options": [],
                        "tableKey": "Table_9",
                        "tableKeyColumn": "Selection",
                        "tableLabelColumn": "",
                        "type": "select"
                      }
                    ],
                    "flow": "vertical",
                    "align": "center",
                    "type": "panel"
                  },
                  {
                    "key": "Level_9",
                    "cssClass": "",
                    "role": 0,
                    "permission": 0,
                    "tooltip": null,
                    "visibilityFormula": null,
                    "label": "",
                    "defaultValue": "",
                    "size": null,
                    "style": "dialog",
                    "type": "textArea"
                  }
                ],
                [
                  {
                    "key": "",
                    "cssClass": "",
                    "role": "0",
                    "permission": "0",
                    "tooltip": "",
                    "visibilityFormula": "",
                    "label": null,
                    "defaultValue": null,
                    "size": "full-size",
                    "icon": "",
                    "value": "Level 10",
                    "prefix": "",
                    "suffix": "",
                    "rollMessage": "",
                    "altRollMessage": "",
                    "style": "bold",
                    "type": "label"
                  },
                  {
                    "key": "",
                    "cssClass": "",
                    "role": "0",
                    "permission": "0",
                    "tooltip": "",
                    "visibilityFormula": "",
                    "contents": [
                      {
                        "key": "Table_10",
                        "cssClass": "",
                        "role": "0",
                        "permission": "0",
                        "tooltip": "",
                        "visibilityFormula": "edit",
                        "rowLayout": [
                          {
                            "key": "Selection",
                            "cssClass": "",
                            "role": "0",
                            "permission": "0",
                            "tooltip": "",
                            "visibilityFormula": "",
                            "label": "",
                            "defaultValue": "",
                            "size": "full-size",
                            "charList": "",
                            "maxLength": "",
                            "type": "textField",
                            "align": "center",
                            "colName": ""
                          }
                        ],
                        "head": true,
                        "deleteWarning": true,
                        "predefinedLines": [],
                        "type": "dynamicTable"
                      },
                      {
                        "key": "Selection_10",
                        "cssClass": "",
                        "role": "0",
                        "permission": "0",
                        "tooltip": "",
                        "visibilityFormula": "not(edit)",
                        "label": "",
                        "defaultValue": "",
                        "size": "full-size",
                        "options": [],
                        "tableKey": "Table_10",
                        "tableKeyColumn": "Selection",
                        "tableLabelColumn": "",
                        "type": "select"
                      }
                    ],
                    "flow": "vertical",
                    "align": "center",
                    "type": "panel"
                  },
                  {
                    "key": "Level_10",
                    "cssClass": "",
                    "role": "0",
                    "permission": "0",
                    "tooltip": "",
                    "visibilityFormula": "",
                    "label": "",
                    "defaultValue": "",
                    "size": null,
                    "style": "dialog",
                    "type": "textArea"
                  }
                ],
                [
                  null,
                  null,
                  null
                ],
                [
                  null,
                  null,
                  null
                ],
                [
                  null,
                  null,
                  null
                ],
                [
                  null,
                  null,
                  null
                ],
                [
                  null,
                  null,
                  null
                ]
              ],
              "cols": "3",
              "rows": "10",
              "layout": "ccc",
              "type": "table"
            }
          ],
          "flow": "vertical",
          "align": "center",
          "type": "panel"
        }
      ],
      "key": "custom_body",
      "cssClass": null,
      "flow": null,
      "align": null,
      "type": "panel",
      "role": 0,
      "permission": 0,
      "tooltip": null,
      "visibilityFormula": null
    },
    "display": {
      "width": "600",
      "height": "600",
      "fix_size": false,
      "pp_width": "64",
      "pp_height": "64"
    },
    "template": "PsJIEFKNDZVeK4vc",
    "props": {
      "name": "Mage",
      "Level": "1",
      "Selection_1": "",
      "Level_1": "",
      "Selection_2": "",
      "Level_2": "",
      "Selection_3": "",
      "Level_3": "",
      "Selection_4": "",
      "Level_4": "",
      "Selection_5": "",
      "Level_5": "",
      "Selection_6": "",
      "Level_6": "",
      "Selection_7": "",
      "Level_7": "",
      "Selection_8": "",
      "Level_8": "",
      "Selection_9": "",
      "Level_9": "",
      "Selection_10": "",
      "Level_10": "",
      "edit": false,
      "Costs": "14"
    },
    "modifiers": [
      {
        "id": "BRwVQMosBMzZ0cQ2",
        "conditionalGroup": "",
        "priority": 1,
        "key": "Magic_Level",
        "operator": "add",
        "formula": "${Level}$",
        "description": ""
      }
    ],
    "unique": false,
    "templateSystemUniqueVersion": 4292634891
  },
  "effects": [],
  "folder": "mQJH96cGtVKu4Gdd",
  "flags": {
    "custom-system-builder": {
      "version": "2.3.1"
    },
    "exportSource": {
      "world": "example",
      "system": "custom-system-builder",
      "coreVersion": "11.307",
      "systemVersion": "2.3.1"
    }
  },
  "_stats": {
    "systemId": "custom-system-builder",
    "systemVersion": "2.3.1",
    "coreVersion": "11.307",
    "createdTime": 1692134656384,
    "modifiedTime": 1692216835098,
    "lastModifiedBy": "qW8zGX9Ha3g8siz3"
  }
}